<?xml version="1.0" encoding="UTF-8"?>
<session version="1.0">
<refactoring comment="Rename resource &apos;Jetkys&apos; to &apos;Jetkys_gossip&apos;" description="Rename resource &apos;Jetkys&apos;" flags="7" id="org.eclipse.ltk.core.refactoring.rename.resource" input="/Jetkys" name="Jetkys_gossip" stamp="1460612559256" updateReferences="true"/>
</session>